<svg width="14" height="16" viewBox="0 0 14 16" fill="none" xmlns="http://www.w3.org/2000/svg">
<path d="M14 6.87672V14.8114H11.0761L10.8981 13.392C9.84073 14.6125 8.30439 15.2621 6.72833 15.1553C5.86123 15.1625 4.99997 15.0072 4.18579 14.6968C3.39747 14.3935 2.67245 13.9356 2.05006 13.3479C1.39029 12.7061 0.880118 11.9161 0.558437 11.038C0.17836 9.99666 -0.00856611 8.88978 0.00755343 7.77599C-0.0818709 5.70369 0.625656 3.67966 1.97378 2.15115C3.36321 0.686672 5.28669 -0.0925328 7.26227 0.00878044C8.82671 -0.0431087 10.3639 0.443432 11.6354 1.39295C12.848 2.35267 13.639 3.77906 13.8305 5.35149H9.51665C9.28642 4.22449 8.29041 3.44835 7.18599 3.53532C6.37688 3.4986 5.61546 3.93373 5.21129 4.66382C4.72643 5.61433 4.49799 6.68368 4.55023 7.75836C4.55023 10.3621 5.51922 11.664 7.4572 11.664C7.97176 11.6545 8.47248 11.4891 8.89797 11.1879C9.31883 10.9213 9.62294 10.4942 9.74548 9.99771H7.77925V6.87672H14Z" fill="#1B1B1B"/>
</svg>
